        SEED,     SAMPLES,          PW,           D,           L,  L1_PADDING, LLC_PADDING,   LLC_EXTRA,    NB_CORES,  NB_L1_SETS, NB_L1_SLOTS, NB_LLC_SETS,NB_LLC_SLOTS,     P_A (%)
   529782892,        3000,    0.000000,     1048576,     1000.00,           0,           0,           0,           4,          64,           8,        2048,          16,    0.000000
   387022090,        3000,    0.000000,     1048576,     5000.00,           0,           0,           0,           4,          64,           8,        2048,          16,    0.000000
  1644358298,        3000,    0.000000,     1048576,     8000.00,           0,           0,           0,           4,          64,           8,        2048,          16,    0.000000
  1889933451,        3000,    0.000000,     1048576,    10000.00,           0,           0,           0,           4,          64,           8,        2048,          16,    0.000000
  1904779767,        3000,    0.000000,     1048576,    12000.00,           0,           0,           0,           4,          64,           8,        2048,          16,    0.000000
   481440327,        3000,    0.000000,     1048576,    15000.00,           0,           0,           0,           4,          64,           8,        2048,          16,    0.000000
  1351454625,        3000,    0.000000,     1048576,    18000.00,           0,           0,           0,           4,          64,           8,        2048,          16,    0.000000
  1507198490,        3000,    0.000000,     1048576,    20000.00,           0,           0,           0,           4,          64,           8,        2048,          16,    0.000000
   338650082,        3000,    0.000000,     1048576,    30000.00,           0,           0,           0,           4,          64,           8,        2048,          16,    0.133333
   642470619,        3000,    0.000000,     1048576,    40000.00,           0,           0,           0,           4,          64,           8,        2048,          16,    6.533333
  1196355130,        3000,    0.000000,     1048576,    50000.00,           0,           0,           0,           4,          64,           8,        2048,          16,   65.400000
